## Interface: 90200
## Title: Grail
## LoadOnDemand: 1
## Dependencies: Wholly
## Author: Scott M Harrison
## Notes: Knows about quests
## Version: 117
## SavedVariables: GrailDatabase
## SavedVariablesPerCharacter: GrailDatabasePlayer

Grail.lua

## Title-zhCN: |cff880303[爱不易]|r Grail 任务数据库
## Notes-zhCN: 给Wholly可接任务插件提供数据
## X-Vendor: AbyUI
