## Interface: 90200
## Title: XLoot Frame
## Notes: A customizable, skinnable loot frame.
## Version: 9.0-7
## Author: Xuerian
## X-Category: Inventory

## Dependencies: XLoot

load.xml


## Title: |cff880303[爱不易]|r XLoot 拾取框架模块
## Notes: 可以自定义美化样式的拾取框架
## X-Vendor: AbyUI
