## Interface: 90200

## Title: Garrison Mission Manager
## Version: v61
## Notes: Assists you with selecting best team for Battle for Azeroth mission table, Legion's Class Hall and WoD's Garrison/Shipyard missions and other followers management tasks
## Author: Oleg "Rowaa[SR13]" Volkov

## X-License: All Rights Reserved.
## X-Curse-Project-ID: 86844
## X-WoWI-ID: 23375

## LoadOnDemand: 1
## LoadWith: Blizzard_GarrisonUI, Blizzard_OrderHallUI
## RequiredDeps: Blizzard_GarrisonUI, Blizzard_OrderHallUI
## OptionalDeps: LibStub, LibDataBroker-1.1, Bagnon, Titan, LibTTScan-1.0, SR13-TimeRecord

## SavedVariables: SV_GarrisonMissionManager
## SavedVariablesPerCharacter: SVPC_GarrisonMissionManager

#+DEVEL.lua
LazyWidget.lua
C_Garrison_cache.lua
FindBestFollowersForMission.lua
GarrisonMissionManager.lua
MissionUI_Shared.lua
MissionUI_Shared_UpgradeItems.lua
MissionUI_Shared_Init.lua
MissionUI_Garrison.lua
MissionUI_Shipyard.lua
MissionUI_OrderHall.lua
MissionUI_BFA.lua
MissionUI_Covenant.lua
GarrisonBuilding.lua
Broker.lua

## Title-zhCN: |cff880303[爱不易]|r Garrison 要塞任务管家
## Notes-zhCN: 在要塞追随者任务面板增加帮助你选取最佳队伍的功能
## X-Vendor: AbyUI
