## Interface: 90200
## Notes: Collects Herbs, Mines, Gas Clouds, Archaeology, Treasure and Fishing locations and adds them to the worldmap and minimap
## Notes-frFR: Enregistre les positions des herbes, mines, nuages de gaz et poissons et les ajoute sur la carte du monde et la minicarte.
## Notes-ruRU: Собирает информацию о расположении трав, руды, газовых облаков и рыбных мест и показывает её на карте и миникарте
## Notes-koKR: 약초, 광맥, 가스, 낚시 위치를 저장하여 월드맵과 미니맵에 표시합니다.
## Notes-zhTW: 收集草藥、礦、氣雲和釣魚的地點，並增加他們到世界地圖和小地圖。
## Notes-zhCN: 收集草药、矿、气云和钓鱼的地点，并增加他们到世界地图和小地图。
## Title: GatherMate2
## Title-zhTW: GatherMate2 採集助手
## Title-zhCN: GatherMate2 采集助手
## Author: kagaro, xinhuan, nevcairiel
## X-Email: sal.scotto@gmail.com
## X-Credits: OttoDeFe for the launher icon.
## SavedVariables: GatherMate2DB, GatherMate2HerbDB, GatherMate2MineDB, GatherMate2FishDB, GatherMate2GasDB, GatherMate2TreasureDB, GatherMate2ArchaeologyDB, GatherMate2LoggingDB
## X-Category: Map
## Version: 1.47.1-1-g2f88acf
## X-License: ARR
## OptionalDeps: Ace3, LibDataBroker-1.1, HereBeDragons
## LoadManagers: AddonLoader
## X-LoadOn-Always: delayed
## X-Curse-Project-ID: 26120
## X-WoWI-ID: 21293

Locales\GatherMate2-enUS.lua
Locales\GatherMate2-zhCN.lua
Locales\GatherMate2-zhTW.lua

## Order is important
GatherMate2.lua
Collector.lua
Display.lua
Constants.lua
Config.lua

## XML loads last because it only contains the pin template
GatherMate2.xml

## Title-zhCN: |cff880303[爱不易]|r GatherMate2 采集助手
## X-Vendor: AbyUI

