## Interface: 90200
## Title: AtlasLootReverse
## Notes: Does a reverse lookup of AtlasLoot for an item's drop info.
## Version: 1.14_163_20121126
## Author: pceric
# SavedVariables: AtlasLootReverseDB
## X-Website: http://www.wowinterface.com/downloads/info12834-AtlasLootReverse.html
## X-Category: Interface Enhancements
## X-Embeds: Ace3, LibExtraTip
# Dependencies: AtlasLoot
## OptionalDeps: AtlasLoot, Ace3, LibExtraTip

locales\locale-enUS.lua
locales\locale-zhCN.lua
locales\locale-zhTW.lua

db.lua
db_tw.lua

AtlasLootReverse.lua

## Title-zhCN: |cff880303[爱不易]|r AtlasLootR 物品来源查询
## Notes-zhCN: 装备掉落出处显示
## X-Vendor: AbyUI