## Interface: 90200
## X-Max-Interface: 90200
## X-Min-Interface: 11402

## Title: Decursive |cffff00ff -Ace3-|r
## Notes: Afflictions display and cleaning for solo, group and raid with advanced filtering and priority system.
## Notes-frFR: Affichage et guérison des affections avec un système évolué de filtrage et de priorité.
## Notes-deDE: Anzeige und Reinigung von Gebrechen für Solo, Gruppe und Schlachtzug mit erweitertem Filter- und Prioritäten-System.
## Notes-esES: Visualización y limpieza de aflicciones en solitario, en grupo y en bandas con filtrado avanzado y sistema de prioridad.
## Notes-esMX: Visualización y limpieza de aflicciones en solitario, en grupo y en bandas con filtrado avanzado y sistema de prioridad.
## Notes-koKR: 솔로, 그룹과 공격대를 위한 고급화된 필터링과 우선순위 시스템으로 피해들의 표시와 제거를 합니다.
## Notes-ruRU: Отображение и инструменты для развеивания дебаффов для одиночной игры, игры в группе и рейде, с развитой системой фильтрации и приоритетов.
## Notes-zhCN: 当单独、小队和团队时清除有害状态，并可使用高级过滤和优先等级系统。
## Notes-zhTW: 當單獨、小隊和團隊時清除有害狀態，並可使用高級過濾和優先等級系統。
## Notes-ptBR: Exibição de aflições e limpeza para uso solo, em grupo e raides, com filtragem avançada e sistema de proriodades.
## Notes-itIT: Afflictions display and cleaning for solo, group and raid with advanced filtering and priority system.


## SavedVariables: DecursiveDB

## Version: 2.7.8.5
## Author: John Wellesz

## X-License: GNU GPL V3

## OptionalDeps: Ace3, LibQTip-1.0, LibDataBroker-1.1, LibDBIcon-1.0, !BugGrabber

## LoadManagers: AddonLoader
## X-LoadOn-Class: Mage, Priest, Paladin, Druid, Hunter, Warlock, Shaman, Monk, Deathknight
## X-LoadOn-Slash: /decursive, /dcr


## X-Embeds: Ace3, LibQTip-1.0, LibDataBroker-1.1, LibDBIcon-1.0, !BugGrabber

## X-ReleaseDate: "2022-02-27T22:04:38Z"
## X-Category: Combat
## X-Website: http://www.2072productions.com/to/decursive.php
## X-Credits: Sylvin (Full french translation), Peter Sun, Ananhaid (ZhTW and zhCN translation), Fenlis, Chkid (koKR translation), Hemathio, Swix, Athariel, StingerSoft (Russian Translation), Freydis88, Floyddotnet, Vilogity, Dessa, Farook (German translation)

## X-Curse-Project-ID: 2154
## X-AceForum: 4195

## X-eMail: Decursive@2072productions.com

embeds.xml

Dcr_DIAG.lua
Dcr_DIAG.xml

Localization\load.xml

DCR_init.lua
Dcr_LDB.lua
Dcr_utils.lua


Dcr_opt.lua
Dcr_Events.lua

Dcr_Raid.lua

Decursive.lua
Decursive.xml

Dcr_lists.lua
Dcr_lists.xml

Dcr_DebuffsFrame.lua
Dcr_DebuffsFrame.xml

Dcr_LiveList.lua
Dcr_LiveList.xml

## Title: |cff880303[爱不易]|r Decursive 一键驱散
## X-Vendor: AbyUI
