## Interface: 90200
## Title: Parrot
## Notes: Floating Combat Text of awesomeness. Caw. It'll eat your crackers.
## Notes-zhCN: 绝妙的浮动战斗记录指示器。
## Notes-zhTW: 絕妙的浮動戰鬥記錄指示器。
## Author: ckknight, profalbert
## X-eMail: ckknight AT gmail DOT com, cedwani AT quantentunnel DOT de
## X-Website: http://www.wowace.com/
## X-Category: Combat
## SavedVariables: ParrotDB
## OptionalDeps: Ace3, LibSharedMedia-3.0, LibDeformat-3.0, AceGUI-3.0-SharedMediaWidgets
## X-WoWIPortal: ckknight
## X-License: GPL v2 or later
## Version: v1.13.0-1-g6a2e761
## X-Curse-Packaged-Version: v1.13.0-1-g6a2e761
## X-Curse-Project-Name: Parrot
## X-Curse-Project-ID: parrot
## X-Curse-Repository-ID: wow/parrot/mainline

## LoadManagers: AddonLoader
## X-LoadOn-Always: delayed

embeds.xml

Locales\locales.xml

Code\Parrot.lua
Code\Broker.lua
Code\AnimationStyles.lua
Code\CombatEvents.lua
Code\Display.lua
Code\ScrollAreas.lua
Code\Suppressions.lua
Code\TriggerConditions.lua
Code\Triggers.lua

Data\AnimationStyles.lua
Data\CombatEvents.lua
Data\TriggerConditions.lua
Data\Auras.lua
Data\Cooldowns.lua
Data\Loot.lua
Data\CombatStatus.lua

## Title: |cff880303[爱不易]|r Parrot 浮动战斗信息
## Notes-zhCN: 绝妙的浮动战斗记录指示器。
## Notes-zhTW: 絕妙的浮動戰鬥記錄指示器。
## X-Vendor: AbyUI
