## Interface: 90200
## Title: Bagnon
## Author: Tuller & Jaliborc (João Cardoso)
## Notes: Single window displays for your inventory and bank
## OptionalDeps: BagBrother, WoWUnit, TestPoncho
## SavedVariables: Bagnon_Sets
## Version: 9.1.4

addons\main\main.xml
Bagnon_ReagentBankButton\style.xml

## Title-zhCN: |cff880303[爱不易]|r Bagnon 背包整合
## X-Vendor: AbyUI
