## Interface: 90200
## Title: TomTom
## Author: Cladhaire, Ludovicus
## Version: v3.0.6
## License: All Rights Reserved
## Notes: Acts as your portable navigation assistant
## Notes-frFR: Agit comme un assistant de navigation portable
## Notes-zhCN:一个简单的导航助手。
## Notes-ruRU: Удобный портативный навигатор по игровой карте
## Notes-deDE: Dient dir als portabler Navigationsassistent.
## SavedVariables: TomTomDB, TomTomWaypoints, TomTomWaypointsM
## OptionalDeps: HereBeDragons-2.0

## X-Localizations: enUS, enGB, deDE, frFR, zhCN, ruRU, zhTW
## X-CompatibleLocales: enUS, enGB, deDE, frFR, esES, esMX, zhCN, zhTW, koKR, ruRU
## X-Curse-Project-ID: 18808
## X-WoWI-ID: 7032
## X-Wago-ID: Rn6VaONd

AddonCore.lua

Localization.enUS.lua
Localization.zhCN.lua
Localization.zhTW.lua

TomTom.lua
TomTom_Waypoints.lua
TomTom_CrazyArrow.lua
TomTom_Corpse.lua
TomTom_Config.lua

TomTom_POIIntegration.lua



## Title-zhCN: |cff880303[爱不易]|r TomTom 路径指示
## Title-zhTW: |cff880303[爱不易]|r TomTom 路徑指示
## Notes-zhCN:指示目标路径点的方向 距离 到达时间等功能.
## Notes-zhTW:指示目標路徑點的方向 距離 到達時間等功能.
## X-Vendor: AbyUI