## Interface: 90200
## Title: TrufiGCD
## Notes: View queue of last spells
## SavedVariables: TrufiGCDGlSave
## SavedVariablesPerCharacter: TrufiGCDChSave
## OptionalDeps: ButtonFacade, Masque

Locales.lua
TrufiGCD.lua

## Title: |cff880303[爱不易]|r TrufiGCD 技能序列
## X-Vendor: AbyUI

