## Interface: 90200
## Version: 90100.06
## Title: Meeting Stone
## Title-zhCN: |cffff565e[网易]|r 集合石
## Notes-zhCN: 帮助您更好的组建队伍
## SavedVariables: MEETINGSTONE_UI_DB
## SavedVariablesPerCharacter: MEETINGSTONE_CHARACTER_DB
## LoadManagers: AddonLoader
## X-LoadOn-Always: delayed

Load.xml


## X-Vendor: AbyUI
