## Interface: 90200
## Title: HandyNotes_HallowsEnd
## Notes: Displays the locations of Hallow's End candy buckets.
## Author: Ravendwyr
## Version: v1.5.1-8-g4c26733
## X-Category: Map & Minimap
## SavedVariables: HandyNotes_HallowsEndDB
## RequiredDeps: HandyNotes
## X-Curse-Project-ID: 46114

Core.lua

Alliance.lua
Horde.lua

## Title-zhCN: |cff880303[爱不易]|r HandyNotes万圣节糖罐
## X-Vendor: AbyUI
