## Interface: 90200
## X-Min-Interface: 90105
## Title:|cffffe00a<|r|cffff7d0aDBM|r|cffffe00a>|r |cff69ccf0Voicepack Yike|r
## Title-zhCN:|cffffe00a<|r|cffff7d0aDBM|r|cffffe00a>|r |cff69ccf0夏一可语音包|r
## Title-zhTW:|cffffe00a<|r|cffff7d0aDBM|r|cffffe00a>|r |cff69ccf0夏一可語音包|r
## DefaultState: enabled
## RequiredDeps: DBM-Core
## Author: 夏一可, Mini_Dragon
## Version: 20220204
## Notes: https://github.com/Mini-Dragon/DBM-VoicePack-Yike
## X-DBM-Voice: 1
## X-DBM-Voice-Name: 夏一可(普通话女)
## X-DBM-Voice-ShortName: Yike
## X-DBM-Voice-Version: 12
## X-DBM-Voice-HasCount: 1


## Title-zhCN: |cff880303[爱不易]|r DBM 夏一可语音包
## X-Vendor: AbyUI
