## Interface: 90200
## Title: HandyNotes_Argus
## Version: 0.20.0
## Notes: Shows location of treasures and rares in Argus & more
## OptionalDeps: Ace3
## RequiredDeps: HandyNotes
## X-Embeds: Ace3
## SavedVariables: HandyNotesArgusDB

#@no-lib-strip@
#@end-no-lib-strip@

localization\enUS.lua
localization\zhCN.lua
localization\zhTW.lua
HandyNotes_Argus.lua

## Title-zhCN: |cff880303[爱不易]|r HandyNotes 阿古斯宝箱
## X-Vendor: AbyUI

