## Interface: 90200
## Title: Method Dungeon Tools - DB STUB
## Author: Nnoggie
## Version: 3.0.9
## Notes: Stubbed out MDT jsut for sake of getting original DB back. Will be deprecated soon
## SavedVariables: MethodDungeonToolsDB

MethodDungeonTools.lua

## Title-zhCN: |cff880303[爱不易]|r MDT 旧版本兼容
## X-Vendor: AbyUI