## Interface: 90200
## Version: 20.10.31
## Title: TipTacOptions
## Author: Aezay (Earthen Ring EU)
## Notes: Option Dialog for TipTac
## Dependencies: TipTac
## LoadOnDemand: 1
Libs\AzDropDown.lua
Libs\AzOptionsFactory.lua
abyLocales.lua
ttLayouts.lua
ttOptions.lua

## Title-zhCN: |cff880303[爱不易]|r TipTac 配置模块
## X-Vendor: AbyUI