## Interface: 90200
## Title: XLoot
## Notes: Core module for Loot and Looting-related UI improvements
## Version: 9.0-7
## Author: Xuerian
## X-Category: Inventory
## X-Name: XLoot

## SavedVariables: XLootADB
## OptionalDeps: Ace3, LibStub, ButtonFacade, Masque, Pawn


localization.lua
XLoot.lua
skins.lua
SKIN_TWEAKS.lua
stacks.lua
helpers.lua


## Title: |cff880303[爱不易]|r XLoot 拾取框增强
## Notes-zhCN: 美化拾取框,方便快捷的通告掉落到团队 工会 小队等频道.
## X-Vendor: AbyUI
