## Interface: 90200
## Title: RangeDisplay Options
## Author: mitch0
## Version: v4.9.8
## Notes: Configuration options for RangeDisplay
## X-Repple: 辅助
## OptionalDeps: AceGUI-3.0-SharedMediaWidgets
## Dependencies: RangeDisplay
## LoadOnDemand: 1
## X-License: Public Domain
## X-RelSite-WoWI: 7297

localizations.lua
Options.lua

## Title: |cff880303[爱不易]|r RangeDis 距离显示设置
## Notes-zhCN: 距离显示设置模块
## Notes-zhTW: 目標距離 設置模組
## X-Vendor: AbyUI
