## Interface: 90200
## Title: Shadowed UF (Options)
## Notes: Configuration for Shadowed Unit Frames.
## Author: Shadowed
## LoadOnDemand: true
## Dependencies: ShadowedUnitFrames

config.lua

## Title:  |cff880303[爱不易]|r SUF 配置选项
## X-Vendor: AbyUI
