## Interface: 90200
## Title:|cffffe00a<|r|cffff7d0aDBM|r|cffffe00a>|r |cff69ccf0Battle of Dazar'alor|r
## Title-koKR:|cffffe00a<|r|cffff7d0aDBM|r|cffffe00a>|r |cff69ccf0다자알로 전투|r
## Title-zhCN:|cffffe00a<|r|cffff7d0aDBM|r|cffffe00a>|r |cff69ccf0达萨罗之战|r
## Title-zhTW:|cffffe00a<|r|cffff7d0aDBM|r|cffffe00a>|r |cff69ccf0達薩亞洛之戰|r
## Title-ruRU:|cffffe00a<|r|cffff7d0aDBM|r|cffffe00a>|r |cff69ccf0Битва за Дазар'алор|r
## Title-itIT:|cffffe00a<|r|cffff7d0aDBM|r|cffffe00a>|r |cff69ccf0Battaglia di Dazar'alor|r
## Author: MysticalOS
## LoadOnDemand: 1
## RequiredDeps: DBM-Core
## SavedVariables: DBMZuldazarRaid_AllSavedVars
## SavedVariablesPerCharacter: DBMZuldazarRaid_SavedStats
## X-DBM-Mod: 1
## X-DBM-Mod-Type: RAID
## X-DBM-Mod-Category: BFA
## X-DBM-StatTypes: lfr,normal,heroic,mythic
## X-DBM-Mod-SubCategories: Shared,Alliance,Horde
## X-DBM-Mod-SubCategories-koKR: 공통,얼라이언스,호드
## X-DBM-Mod-SubCategories-zhTW: 共通,聯盟,部落
## X-DBM-Mod-SubCategories-zhCN: 共有剧情,联盟剧情,部落剧情
## X-DBM-Mod-SubCategories-itIT: Condiviso,Alleanza,Orda
## X-DBM-Mod-Sort: 407
## X-DBM-Mod-MapID: 2070
## X-DBM-Mod-MinCoreRevision: 17286
## X-DBM-Mod-MinExpansion: 7
localization.en.lua
localization.cn.lua
localization.tw.lua
ChampionofLight.lua
JadefireMasters.lua
Grong.lua
Opulence.lua
ConclaveoftheChosen.lua
Rastakhan.lua
Mekkatorque.lua
StormwallBlockade.lua
Jaina.lua
ZuldazarRaidTrash.lua


## X-Vendor: AbyUI
