## Interface: 90200
## Notes: Wowhead Data dump for GatherMate2
## Title: GatherMate2Data
## Author: kagaro, Xinhuan
## X-Category: Map
## X-Email: sal.scotto@gmail.com
## Version: v36.2
## LoadOnDemand: 1
## Dependencies: GatherMate2
## X-Curse-Project-ID: 26737

MiningData.lua
HerbalismData.lua
GasData.lua
FishData.lua
TreasureData.lua
ArchaeologyData.lua
GatherMateData.lua


## Title-zhCN: |cff880303[爱不易]|r GatherMate2 采集数据库
## X-Vendor: AbyUI
