## Interface: 90200
## Title: Grail |r|cff69ccf0When|r
## Author: Scott M Harrison
## Notes: Provides completion date information to Grail
## Version: 003
## Dependencies: Grail
## LoadOnDemand: 1
## SavedVariablesPerCharacter: GrailWhenPlayer

Grail-When.lua

## Title: |cff880303[爱不易]|r Grail 完成日期模块
## X-Vendor: AbyUI
