## Interface: 90200
## Title: GTFO
## Notes: GTFO, you're dying!
## Author: Zensunim of Dragonblight/Myzrael
## Version: 4.66.3
## DefaultState: Enabled
## SavedVariables: GTFOData
Localization\enUS.lua
Localization\zhCN.lua
Localization\zhTW.lua
Localization\Boss.lua
GTFO_PowerAuras.lua
GTFO_WeakAuras.lua
GTFO_Recount.lua
GTFO_Skada.lua
GTFO.lua
GTFO_Ignore.lua
GTFO_Spells_GenericRetail.lua
GTFO_Spells_GenericClassic.lua
GTFO_Spells_Vanilla.lua
GTFO_Spells_Classic.lua
GTFO_Spells_BC.lua
GTFO_Spells_LK.lua
GTFO_Spells_CAT.lua
GTFO_Spells_MP.lua
GTFO_Spells_LGN.lua
GTFO_Spells_BFA.lua
GTFO_Spells_SL.lua
GTFO_Spells_Special.lua
GTFO_Fail_GenericRetail.lua
GTFO_Fail_GenericClassic.lua
GTFO_Fail_Vanilla.lua
GTFO_Fail_Classic.lua
GTFO_Fail_BC.lua
GTFO_Fail_LK.lua
GTFO_Fail_CAT.lua
GTFO_Fail_MP.lua
GTFO_Fail_LGN.lua
GTFO_Fail_BFA.lua
GTFO_Fail_SL.lua
GTFO_FF_BC.lua
GTFO_FF_LK.lua
GTFO_FF_CAT.lua
GTFO_FF_MP.lua
GTFO_FF_LGN.lua
GTFO_FF_BFA.lua
GTFO_FF_SL.lua
GTFO_Mobs.lua
GTFO.xml

## Title-zhCN: |cff880303[爱不易]|r GTFO 站位提醒
## Title-zhTW: |cff880303[爱不易]|r GTFO 站位提醒
## Notes-zhCN: 自动声音提示站位危险插件.
## Notes-zhTW: 自動聲音提示站位危險插件.
## X-Vendor: AbyUI
