## Interface: 90200
## Title: OmniCC Config
## Notes: OmniCC's configuration menu
## Notes-koKR: OmniCC의 설정 메뉴
## Author: Tuller
## Dependencies: OmniCC
## LoadOnDemand: 1
#embeds.xml
localization\localization.xml
preview.lua
themes.lua
rules.lua
options.lua


## Title-zhCN: |cff880303[爱不易]|r OmniCC 配置界面
## Notes-zhCN: 技能冷却计时-配置界面模块
## X-Vendor: AbyUI
