## Interface: 90200
## Title: Dominos Progress
## Title-zhCN: |cFF0099FFDominos|r 进度条模块
## Notes: Progress bars of all sorts
## Notes-zhCN: 各种进度条
## Author: Tuller
## Dependencies: Dominos
localization.xml
config.lua
main.lua
progressBar.lua
xpBar.lua
reputationBar.lua
artifactBar.lua
azeriteBar.lua
honorBar.lua
goldBar.lua


## Title-zhCN: |cff880303[爱不易]|r Dominos 进度条模块
## Notes-zhCN: 多米诺-经验,声望,荣誉,神器能量进度条模块
## X-Vendor: AbyUI
