## Interface: 90200
## Title: CompactRaid
## Version: 5.10
## Author: Abin
## SavedVariables: CompactRaidDB
## OptionalDeps: Clique, TomTom
## X-Category: UnitFrame
## X-eMail: abinn32@yahoo.com
## X-Curse-Packaged-Version: v5.09
## X-Curse-Project-Name: CompactRaid
## X-Curse-Project-ID: compactraid
## X-Curse-Repository-ID: wow/compactraid/mainline

..\!!!Libs\!External\abin\LibAddonManager.lua
..\!!!Libs\!External\abin\Pre80API.lua
Includes\utf8.lua
..\!!!Libs\!External\abin\InterfaceOptionPage-1.0.lua
..\!!!Libs\!External\abin\VirtualScrollList-1.0.lua
..\!!!Libs\!External\abin\TabFrame-1.0.lua
..\!!!Libs\!External\abin\LibAuraGroups-1.0.lua
Includes\ModularOptionFrame.lua
..\!!!Libs\!External\abin\LibPlayerSpells-1.0.lua
Includes\UnitAuraEx.lua

Locales\enUS.lua
Locales\zhCN.lua
Locales\zhTW.lua

Core.lua
Supports\embeds.xml
UnitFrames\embeds.xml
ToolFrames\embeds.xml
OptionFrames\embeds.xml
Modules\embeds.xml

## Title: |cff880303[爱不易]|r CompactRaid 团队框架
## Title-zhCN: |cff880303[爱不易]|r CompactRaid 团队框架
## Title-zhTW: |cff880303[爱不易]|r CompactRaid 團隊框架
## Notes-zhCN: 增强和美化暴雪自带的团队框架。包括点击施法、减益DEBUFF显示等功能。
## Notes-zhTW: 增强和美化暴雪自带的团队框架。包括点击施法、减益DEBUFF显示等功能。
## X-Vendor: AbyUI
