## Interface: 90200
## Title: Masque_CleanUI
## Author: Seharad
## Version: 9.1.1
## Notes: Masque Skin for the CleanUI look and feel
## Notes-zhTW: Masque的CleanUI皮膚。
## Notes-zhCN: Masque的CleanUI皮肤。
## Dependencies: Masque

Masque_CleanUI.lua

## Title: |cff880303[爱不易]|r Masque 皮肤CleanUI
## X-Vendor: AbyUI
