## Interface: 90200
## Version: 20.10.31
## Title: TipTacItemRef
## Author: Aezay (Earthen Ring EU)
## Notes: Improved ItemRefTooltip
## OptionalDeps: TipTac
abyLocales.lua
LibItemString.lua
ttItemRef.lua

## Title-zhCN: |cff880303[爱不易]|r TipTac 链接与增益模块
## X-Vendor: AbyUI