## Interface: 90200
## Title: ToyPlus
## Version: 1.7.2
## Author: distnz
## SavedVariables: ToyPlusDB
## Notes: Launcher for your favourite toys.

locales.lua
ToyPlus.lua

## Title: |cff880303[爱不易]|r ToyPlus 玩具箱
## X-Vendor: AbyUI
