## Interface: 90200
## Title: QuakeAssist
## Version: 1.10
## Author: Abin
## X-Category: Combat
## SavedVariables: QuakeAssistDB

..\!!!Libs\!External\abin\LibAddonManager.lua
..\!!!Libs\!External\abin\InterfaceOptionPage-1.0.lua
..\!!!Libs\!External\abin\Pre80API.lua

Localization.lua
Core.lua
MainFrame.lua
OptionFrame.lua

## Title: |cff880303[爱不易]|r QuakeAssist 震荡助手
## X-Vendor: AbyUI
