## Interface: 90200
## Title: Details!: Raid Check (plugin)
## Notes: Show talents and item level for all members in your group, also shows food and flask state.
## RequiredDeps: Details

Details_RaidCheck.lua


## X-Vendor: AbyUI
