## Interface: 90200
## Title: Grail |cff69ccf0NPCs |r|cff0000ffRetail|r|cff69ccf0 enUS|r
## Author: Scott M Harrison
## Notes: Provides localized enUS NPCs to Grail for Retail
## Version: 27178
## Dependencies: Grail
## LoadOnDemand: 1

Grail-NPCs-_retail_-enUS.lua

## Title: |cff880303[爱不易]|r Grail NPC模块英文
## X-Vendor: AbyUI
