## Interface: 90200
## Title: XLoot Master
## Notes: Configurable Master Looter interface
## Version: 9.0-7
## Author: Xuerian, Dridzt
## X-Category: Inventory

## Dependencies: XLoot

load.xml


## Title: |cff880303[爱不易]|r XLoot 拾取分配模块
## Notes: XLoot配置拾取分配的界面
## X-Vendor: AbyUI
