## Interface: 90200
## Notes: Add DropDown menus on text edit boxes.
## Notes-zhCN: |cff7fff7f太多|r给输入框加入下拉框体
## Author: ldz5
## Version: 2.4.0.2
## SavedVariables: tdDropDownDB

localization.lua
tdDropDown.lua
tdDropDown_Option.lua

## Title:  |cff880303[爱不易]|r !tdDrop 下拉框增强
## X-Vendor: AbyUI
