## Interface: 90200
## Version: 2.0
## Author: Abin
## Title: MerchantEx
## SavedVariables: MerchantExDB

..\!!!Libs\!External\abin\InterfaceOptionPage-1.0.lua
..\!!!Libs\!External\abin\VirtualScrollList-1.0.lua
..\!!!Libs\!External\abin\TabFrame-1.0.lua

Locales\enUS.lua
Locales\zhCN.lua
Locales\zhTW.lua

Core.lua
OptionFrame.lua

## Title: |cff880303[爱不易]|r MerchantEx 自动修理贩卖
## Notes-zhCN: 自动出售灰色物品/修理装备/购买指定物品
## X-Vendor: AbyUI
