## Interface: 90200
## Title: XLoot Options
## Notes: Configuration interface for XLoot
## Version: 9.0-7
## Author: Xuerian
## X-Category: Inventory

## Dependencies: XLoot
## LoadOnDemand: 1

load.xml


## Title: |cff880303[爱不易]|r XLoot 配置界面模块
## Notes: XLoot拾取界面增强的配置界面
## X-Vendor: AbyUI
