## Interface: 90200
## Title: Bagnon Void Storage
## Author: Jaliborc (João Cardoso)
## Notes: Single window display for your void storage
## RequiredDeps: Bagnon
## LoadOnDemand: 1

..\Bagnon\addons\vault\vault.xml


## Title: |cff880303[爱不易]|r Bagnon 虚空银行整合
## Notes: 在一个窗口中显示所有虚空银行内的物品
## X-Vendor: AbyUI
