## Interface: 90200
## Title: Mythic Dungeon Tools
## Author: Nnoggie
## Version: 3.8.5
## Notes: Tool for planning and optimizing Mythic+ dungeon runs
## Notes-deDE: Tool für das Planen und Optimieren von Mythic+ Dungeons
## Notes-esES: Herramienta para planificar y optimizar las rutas de mazmorras de Piedras Angulares
## Notes-esMX: Herramienta para planificar y optimizar las rutas de mazmorras de Piedras Angulares
## Notes-frFR: Outil pour planifier et optimiser vos parcours de donjons Mythique+
## Notes-itIT: Strumento che permette di pianificare e ottimizzare le spedizioni Mitica+
## Notes-ptBR: Tool for planning and optimizing Mythic+ dungeon runs
## Notes-ruRU: Инструмент для планирования и оптимизации прохождения подземелий мифик+
## Notes-koKR: Tool for planning and optimizing Mythic+ dungeon runs
## Notes-zhCN: 规划和优化大秘境地下城运行的工具
## Notes-zhTW: 幫助你計算 M+ 的小怪%，規劃出最佳拉怪路線。
## OptionalDeps: ElvUI, LibStub, Ace3
## SavedVariables: MythicDungeonToolsDB

AbyEnemyNames.lua
libs\load_libs.xml
init.lua
locales.xml
AceGUIWidgets\load_widgets.xml
Utility.lua
MythicDungeonTools.lua
Modules\load_modules.xml
Developer\load_developer.xml
Legion\load_legion.xml
BattleForAzeroth\load_bfa.xml
Shadowlands\load_shadowlands.xml


## Title-zhCN: |cff880303[爱不易]|r Mythic 大秘路线工具
## X-Vendor: AbyUI
