## Interface: 90200
## Title: Tidy Plates: Quatre Theme
## Notes: It's the 4th!
## Author: Binny
## Dependencies: TidyPlates, TidyPlatesHub

Quatre.lua

## Title-zhCN: |cff880303[爱不易]|r Tidy 姓名板Quatre主题
## Title-zhTW: |cff880303[爱不易]|r Tidy 姓名板Quatre主题
## Notes-zhCN: 强大到爆的多功能姓名版美化插件-QuatreTheme风格模块。
## Notes-zhTW: 強大到爆的多功能姓名版美化插件-QuatreTheme風格模塊。
## X-Vendor: AbyUI
