## Interface: 90200
## Title: Tidy Plates: Grey Theme
## Notes: Use apostrophes wisely.
## Author: Binny
## Dependencies: TidyPlates, TidyPlatesHub

Grey.lua

## Title-zhCN: |cff880303[爱不易]|r Tidy 姓名板Grey主题
## Title-zhTW: |cff880303[爱不易]|r Tidy 姓名板Grey主题
## Notes-zhCN: 强大到爆的多功能姓名版美化插件-GreyTheme风格模块。
## Notes-zhTW: 強大到爆的多功能姓名版美化插件-GreyTheme風格模塊。
## X-Vendor: AbyUI
