## Interface: 90200
## X-Min-Interface: 80000
## Title:|cffffe00a<|r|cffff7d0aDBM|r|cffffe00a>|r |cff69ccf0Emerald Nightmare|r
## Title-deDE:|cffffe00a<|r|cffff7d0aDBM|r|cffffe00a>|r |cff69ccf0Der Smaragdgrüne Alptraum|r
## Title-zhCN:|cffffe00a<|r|cffff7d0aDBM|r|cffffe00a>|r |cff69ccf0翡翠梦魇|r
## Title-zhTW:|cffffe00a<|r|cffff7d0aDBM|r|cffffe00a>|r |cff69ccf0翡翠夢魘|r
## Title-esES:|cffffe00a<|r|cffff7d0aDBM|r|cffffe00a>|r |cff69ccf0Pesadilla Esmeralda|r
## Title-koKR:|cffffe00a<|r|cffff7d0aDBM|r|cffffe00a>|r |cff69ccf0에메랄드의 악몽|r
## Title-ruRU:|cffffe00a<|r|cffff7d0aDBM|r|cffffe00a>|r |cff69ccf0Изумрудный Кошмар|r
## Author: MysticalOS
## LoadOnDemand: 1
## RequiredDeps: DBM-Core
## SavedVariables: DBMEmeraldNightmare_AllSavedVars
## SavedVariablesPerCharacter: DBMEmeraldNightmare_SavedStats
## X-DBM-Mod: 1
## X-DBM-Mod-Type: RAID
## X-DBM-Mod-Category: LEG
## X-DBM-StatTypes: normal,heroic,mythic,lfr
## X-DBM-Mod-Sort: 506
## X-DBM-Mod-MapID: 1520
## X-DBM-Mod-MinCoreRevision: 20200524142133
## X-DBM-Mod-MinExpansion: 6
## X-Curse-Project-ID: 301324
## X-WoWI-ID: 24905
## Version: r29-11-g46923cd

localization.en.lua
localization.cn.lua
localization.tw.lua
Nythendra.lua
Ilgynoth.lua
Renferal.lua
Ursok.lua
NightmareDragons.lua
Cenarius.lua
Xavius.lua
NightmareTrash.lua


## X-Vendor: AbyUI
