## Interface: 90200
## Author: Jordy141
## Notes: Enhances shift-click interface at vendors, making it easier to buy large amounts of items at once.
## Title: BuyEmAll
## Version: 3.5.9
## SavedVariablesPerCharacter: BEAConfirmToggle
## LoadManagers: AddonLoader
## X-LoadOn-Merchant: true
## X-LoadOn-Slash: /buyemall

Localization.enUS.lua
Localization.zhCN.lua
Localization.zhTW.lua
BuyEmAll.lua
BuyEmAll.xml

## Title: |cff880303[爱不易]|r BuyEmAll 批量购买
## X-Vendor: AbyUI

