## Interface: 90200
## Title: tdPack
## Author: ldz5
## Version: 50100.04
# Dependencies: tdCore
## OptionalDeps: Bagnon, Combuctor, BaudBag
## SavedVariables: TDDB_TDPACK

load.xml

## Title: |cff880303[爱不易]|r tdPack 背包整理
## Notes-zhCN: 背包整理
## X-Vendor: AbyUI
