## Interface: 90200
# Title: GridQuickHealth
# Notes: 团队框体中的快速治疗功能
## Author: yleaf, warbaby
## Dependencies: Grid

GridQuickHealth.lua

## Title: |cff880303[爱不易]|r Grid 快速血条变化
## X-Vendor: AbyUI
