## Interface: 90200
## Title: TinyInspect
## Version: 9.0.2.2
## Notes: Show ItemLevel For Inspect & Party & Raid & Mouse & Bag & Bank ...
## Notes-zhCN: 装等观察,装等显示
## Notes-zhTW: 裝等觀察,裝等顯示
## Author: M
## SavedVariables: TinyInspectDB

libs\lib.xml

locales\locales.xml
Options.lua

ItemBorder.lua
ItemLevel.lua

InspectCore.lua

InspectUnit.lua
InspectUnitStats.lua
InspectUnitGemAndEnchant.lua
InspectUnitSpecialization.lua
InspectMouse.lua
##InspectGroupMember.lua
InspectParty.lua
InspectRaid.lua

PluginGreenState.lua

## Title: |cff880303[爱不易]|r TinyInspect 装等显示
## X-Vendor: AbyUI
