## Interface: 90200
## Title: Method Raid Tools [Storage]
## SavedVariables: VExRT
## Notes: Required for data migration
## Version: 4620

# deprecated after addon rebranding
# used for variables migration

## Title: |cff880303[爱不易]|r ExRT 团长工具旧版兼容目录
## X-Vendor: AbyUI
