## Interface: 90200
## Title: Kib: Quest Mobs
## Author: Tosaido
## Version: 1.15
## Notes: Keep it Basic: Quest Mobs. Adds a quest indicator above nameplates.
## OptionalDeps: Kib_Config
## DefaultState: enabled

a_localization.lua
b_register.lua
c_core.lua
d_config.lua
e_finalize.lua

## Title: |cff880303[爱不易]|r KibQuest 任务怪物标记
## X-Vendor: AbyUI


