## Interface: 90200
## Title: OmniCC
## Notes: Cooldown count for everything
## Notes-koKR: 모든 것을 위한 쿨다운 카운트
## Author: Tuller
## Version: 9.2.0
## SavedVariables: OmniCCDB, OmniCC4Config
#embeds.xml
localization\localization.xml
main.lua
core\core.xml
settings\settings.xml
effects\effects.xml


## Title-zhCN: |cff880303[爱不易]|r OmniCC 冷却文字
## Notes-zhCN: 给所有的技能冷却动画添加文字显示及冷却后的效果。
## X-Vendor: AbyUI
