## Interface: 90200
## Title: Dominos Roll
## Title-zhCN: |cFF0099FFDominos|r Roll 窗口模块
## Notes: Makes the set of frames for rolling on items when in a group movable
## Author: Tuller
## Dependencies: Dominos
rollBar.lua


## Title-zhCN: |cff880303[爱不易]|r Dominos 掷骰模块
## X-Vendor: AbyUI
